{
    "status": "error",
    "errors": {
        "email" : ["Пользователь с таким email уже зарегистрирован"],
        "subject": ["Не указана тема сообщения", "Поле с темой отсутствует"],
        "phone" : ["Неверный формат номера"]
    }
}